Projeto/mux_4_1/simulation/qsim/mux_4_1.msim.vcd
$comment
	File created using the following command:
		vcd file mux_4_1.msim.vcd -direction
$end
$date
	Mon Jul 02 20:00:59 2018
$end
$version
	ModelSim Version 10.1d
$end
$timescale
	1ps
$end
$scope module mux_4_1_vlg_vec_tst $end
$var reg 2 ! S0 [1:0] $end
$var reg 4 " W0 [3:0] $end
$var wire 1 # F0 $end
$var wire 1 $ sampler $end
$scope module i1 $end
$var wire 1 % gnd $end
$var wire 1 & vcc $end
$var wire 1 ' unknown $end
$var tri1 1 ( devclrn $end
$var tri1 1 ) devpor $end
$var tri1 1 * devoe $end
$var wire 1 + L3|F~0_combout $end
$var wire 1 , L3|F~1_combout $end
$var wire 1 - W0~combout [3] $end
$var wire 1 . W0~combout [2] $end
$var wire 1 / W0~combout [1] $end
$var wire 1 0 W0~combout [0] $end
$var wire 1 1 S0~combout [1] $end
$var wire 1 2 S0~combout [0] $end
$upscope $end
$upscope $end
$enddefinitions $end
#0
$dumpvars
b0 !
b0 "
0#
x$
0%
1&
x'
1(
1)
1*
0+
0,
00
0/
0.
0-
02
01
$end
#5000
b1 !
12
0$
#10000
b11 !
b1 "
b10 !
10
02
11
1$
#15000
b11 !
12
0$
1+
#20000
b11 "
b1 !
b10 "
b0 !
02
01
00
1/
1$
0+
1,
0,
1#
0#
#25000
b1 !
12
0$
1+
1,
1#
#30000
b11 !
b11 "
b10 !
10
02
11
1$
0+
0,
0#
#35000
b11 !
12
0$
1+
#40000
b111 "
b101 "
b1 !
b100 "
b0 !
02
01
00
0/
1.
1$
0+
1,
0,
1#
0#
#45000
b1 !
12
0$
#50000
b11 !
b101 "
b10 !
10
02
11
1$
1,
1#
#55000
b11 !
12
0$
1+
0,
0#
#60000
b111 "
b1 !
b110 "
b0 !
02
01
00
1/
1$
0+
1,
0,
1#
0#
#65000
b1 !
12
0$
1+
1,
1#
#70000
b11 !
b111 "
b10 !
10
02
11
1$
0+
0,
1,
0#
1#
#75000
b11 !
12
0$
1+
0,
0#
#80000
b1111 "
b1011 "
b1001 "
b1 !
b1000 "
b0 !
02
01
00
0/
0.
1-
1$
0+
1,
0,
1#
0#
#85000
b1 !
12
0$
#90000
b11 !
b1001 "
b10 !
10
02
11
1$
#95000
b11 !
12
0$
1+
1,
1#
#100000
b1011 "
b1 !
b1010 "
b0 !
02
01
00
1/
1$
0+
0,
0#
#105000
b1 !
12
0$
1+
1,
1#
#110000
b11 !
b1011 "
b10 !
10
02
11
1$
0+
0,
0#
#115000
b11 !
12
0$
1+
1,
1#
#120000
b1111 "
b1101 "
b1 !
b1100 "
b0 !
02
01
00
0/
1.
1$
0+
0,
0#
#125000
b1 !
12
0$
#130000
b11 !
b1101 "
b10 !
10
02
11
1$
1,
1#
#135000
b11 !
12
0$
1+
#140000
b1111 "
b1 !
b1110 "
b0 !
02
01
00
1/
1$
0+
0,
0#
#145000
b1 !
12
0$
1+
1,
1#
#150000
b11 !
b1111 "
b10 !
10
02
11
1$
0+
#155000
b11 !
12
0$
1+
#160000
b111 "
b11 "
b1 "
b1 !
b0 "
b0 !
02
01
00
0/
0.
0-
1$
0+
0,
0#
#165000
b1 !
12
0$
#170000
b11 !
b1 "
b10 !
10
02
11
1$
#175000
b11 !
12
0$
1+
#180000
b11 "
b1 !
b10 "
b0 !
02
01
00
1/
1$
0+
1,
0,
1#
0#
#185000
b1 !
12
0$
1+
1,
1#
#190000
b11 !
b11 "
b10 !
10
02
11
1$
0+
0,
0#
#195000
b11 !
12
0$
1+
#200000
b111 "
b101 "
b1 !
b100 "
b0 !
02
01
00
0/
1.
1$
0+
1,
0,
1#
0#
#205000
b1 !
12
0$
#210000
b11 !
b101 "
b10 !
10
02
11
1$
1,
1#
#215000
b11 !
12
0$
1+
0,
0#
#220000
b111 "
b1 !
b110 "
b0 !
02
01
00
1/
1$
0+
1,
0,
1#
0#
#225000
b1 !
12
0$
1+
1,
1#
#230000
b11 !
b111 "
b10 !
10
02
11
1$
0+
0,
1,
0#
1#
#235000
b11 !
12
0$
1+
0,
0#
#240000
b1111 "
b1011 "
b1001 "
b1 !
b1000 "
b0 !
02
01
00
0/
0.
1-
1$
0+
1,
0,
1#
0#
#245000
b1 !
12
0$
#250000
b11 !
b1001 "
b10 !
10
02
11
1$
#255000
b11 !
12
0$
1+
1,
1#
#260000
b1011 "
b1 !
b1010 "
b0 !
02
01
00
1/
1$
0+
0,
0#
#265000
b1 !
12
0$
1+
1,
1#
#270000
b11 !
b1011 "
b10 !
10
02
11
1$
0+
0,
0#
#275000
b11 !
12
0$
1+
1,
1#
#280000
b1111 "
b1101 "
b1 !
b1100 "
b0 !
02
01
00
0/
1.
1$
0+
0,
0#
#285000
b1 !
12
0$
#290000
b11 !
b1101 "
b10 !
10
02
11
1$
1,
1#
#295000
b11 !
12
0$
1+
#300000
b1111 "
b1 !
b1110 "
b0 !
02
01
00
1/
1$
0+
0,
0#
#305000
b1 !
12
0$
1+
1,
1#
#310000
b11 !
b1111 "
b10 !
10
02
11
1$
0+
#315000
b11 !
12
0$
1+
#320000
b111 "
b11 "
b1 "
b1 !
b0 "
b0 !
02
01
00
0/
0.
0-
1$
0+
0,
0#
#325000
b1 !
12
0$
#330000
b11 !
b1 "
b10 !
10
02
11
1$
#335000
b11 !
12
0$
1+
#340000
b11 "
b1 !
b10 "
b0 !
02
01
00
1/
1$
0+
1,
0,
1#
0#
#345000
b1 !
12
0$
1+
1,
1#
#350000
b11 !
b11 "
b10 !
10
02
11
1$
0+
0,
0#
#355000
b11 !
12
0$
1+
#360000
b111 "
b101 "
b1 !
b100 "
b0 !
02
01
00
0/
1.
1$
0+
1,
0,
1#
0#
#365000
b1 !
12
0$
#370000
b11 !
b101 "
b10 !
10
02
11
1$
1,
1#
#375000
b11 !
12
0$
1+
0,
0#
#380000
b111 "
b1 !
b110 "
b0 !
02
01
00
1/
1$
0+
1,
0,
1#
0#
#385000
b1 !
12
0$
1+
1,
1#
#390000
b11 !
b111 "
b10 !
10
02
11
1$
0+
0,
1,
0#
1#
#395000
b11 !
12
0$
1+
0,
0#
#400000
b1111 "
b1011 "
b1001 "
b1 !
b1000 "
b0 !
02
01
00
0/
0.
1-
1$
0+
1,
0,
1#
0#
#405000
b1 !
12
0$
#410000
b11 !
b1001 "
b10 !
10
02
11
1$
#415000
b11 !
12
0$
1+
1,
1#
#420000
b1011 "
b1 !
b1010 "
b0 !
02
01
00
1/
1$
0+
0,
0#
#425000
b1 !
12
0$
1+
1,
1#
#430000
b11 !
b1011 "
b10 !
10
02
11
1$
0+
0,
0#
#435000
b11 !
12
0$
1+
1,
1#
#440000
b1111 "
b1101 "
b1 !
b1100 "
b0 !
02
01
00
0/
1.
1$
0+
0,
0#
#445000
b1 !
12
0$
#450000
b11 !
b1101 "
b10 !
10
02
11
1$
1,
1#
#455000
b11 !
12
0$
1+
#460000
b1111 "
b1 !
b1110 "
b0 !
02
01
00
1/
1$
0+
0,
0#
#465000
b1 !
12
0$
1+
1,
1#
#470000
b11 !
b1111 "
b10 !
10
02
11
1$
0+
#475000
b11 !
12
0$
1+
#480000
b111 "
b11 "
b1 "
b1 !
b0 "
b0 !
02
01
00
0/
0.
0-
1$
0+
0,
0#
#485000
b1 !
12
0$
#490000
b11 !
b1 "
b10 !
10
02
11
1$
#495000
b11 !
12
0$
1+
#500000
b11 "
b1 !
b10 "
b0 !
02
01
00
1/
1$
0+
1,
0,
1#
0#
#505000
b1 !
12
0$
1+
1,
1#
#510000
b11 !
b11 "
b10 !
10
02
11
1$
0+
0,
0#
#515000
b11 !
12
0$
1+
#520000
b111 "
b101 "
b1 !
b100 "
b0 !
02
01
00
0/
1.
1$
0+
1,
0,
1#
0#
#525000
b1 !
12
0$
#530000
b11 !
b101 "
b10 !
10
02
11
1$
1,
1#
#535000
b11 !
12
0$
1+
0,
0#
#540000
b111 "
b1 !
b110 "
b0 !
02
01
00
1/
1$
0+
1,
0,
1#
0#
#545000
b1 !
12
0$
1+
1,
1#
#550000
b11 !
b111 "
b10 !
10
02
11
1$
0+
0,
1,
0#
1#
#555000
b11 !
12
0$
1+
0,
0#
#560000
b1111 "
b1011 "
b1001 "
b1 !
b1000 "
b0 !
02
01
00
0/
0.
1-
1$
0+
1,
0,
1#
0#
#565000
b1 !
12
0$
#570000
b11 !
b1001 "
b10 !
10
02
11
1$
#575000
b11 !
12
0$
1+
1,
1#
#580000
b1011 "
b1 !
b1010 "
b0 !
02
01
00
1/
1$
0+
0,
0#
#585000
b1 !
12
0$
1+
1,
1#
#590000
b11 !
b1011 "
b10 !
10
02
11
1$
0+
0,
0#
#595000
b11 !
12
0$
1+
1,
1#
#600000
b1111 "
b1101 "
b1 !
b1100 "
b0 !
02
01
00
0/
1.
1$
0+
0,
0#
#605000
b1 !
12
0$
#610000
b11 !
b1101 "
b10 !
10
02
11
1$
1,
1#
#615000
b11 !
12
0$
1+
#620000
b1111 "
b1 !
b1110 "
b0 !
02
01
00
1/
1$
0+
0,
0#
#625000
b1 !
12
0$
1+
1,
1#
#630000
b11 !
b1111 "
b10 !
10
02
11
1$
0+
#635000
b11 !
12
0$
1+
#640000
b111 "
b11 "
b1 "
b1 !
b0 "
b0 !
02
01
00
0/
0.
0-
1$
0+
0,
0#
#645000
b1 !
12
0$
#650000
b11 !
b1 "
b10 !
10
02
11
1$
#655000
b11 !
12
0$
1+
#660000
b11 "
b1 !
b10 "
b0 !
02
01
00
1/
1$
0+
1,
0,
1#
0#
#665000
b1 !
12
0$
1+
1,
1#
#670000
b11 !
b11 "
b10 !
10
02
11
1$
0+
0,
0#
#675000
b11 !
12
0$
1+
#680000
b111 "
b101 "
b1 !
b100 "
b0 !
02
01
00
0/
1.
1$
0+
1,
0,
1#
0#
#685000
b1 !
12
0$
#690000
b11 !
b101 "
b10 !
10
02
11
1$
1,
1#
#695000
b11 !
12
0$
1+
0,
0#
#700000
b111 "
b1 !
b110 "
b0 !
02
01
00
1/
1$
0+
1,
0,
1#
0#
#705000
b1 !
12
0$
1+
1,
1#
#710000
b11 !
b111 "
b10 !
10
02
11
1$
0+
0,
1,
0#
1#
#715000
b11 !
12
0$
1+
0,
0#
#720000
b1111 "
b1011 "
b1001 "
b1 !
b1000 "
b0 !
02
01
00
0/
0.
1-
1$
0+
1,
0,
1#
0#
#725000
b1 !
12
0$
#730000
b11 !
b1001 "
b10 !
10
02
11
1$
#735000
b11 !
12
0$
1+
1,
1#
#740000
b1011 "
b1 !
b1010 "
b0 !
02
01
00
1/
1$
0+
0,
0#
#745000
b1 !
12
0$
1+
1,
1#
#750000
b11 !
b1011 "
b10 !
10
02
11
1$
0+
0,
0#
#755000
b11 !
12
0$
1+
1,
1#
#760000
b1111 "
b1101 "
b1 !
b1100 "
b0 !
02
01
00
0/
1.
1$
0+
0,
0#
#765000
b1 !
12
0$
#770000
b11 !
b1101 "
b10 !
10
02
11
1$
1,
1#
#775000
b11 !
12
0$
1+
#780000
b1111 "
b1 !
b1110 "
b0 !
02
01
00
1/
1$
0+
0,
0#
#785000
b1 !
12
0$
1+
1,
1#
#790000
b11 !
b1111 "
b10 !
10
02
11
1$
0+
#795000
b11 !
12
0$
1+
#800000
b111 "
b11 "
b1 "
b1 !
b0 "
b0 !
02
01
00
0/
0.
0-
1$
0+
0,
0#
#805000
b1 !
12
0$
#810000
b11 !
b1 "
b10 !
10
02
11
1$
#815000
b11 !
12
0$
1+
#820000
b11 "
b1 !
b10 "
b0 !
02
01
00
1/
1$
0+
1,
0,
1#
0#
#825000
b1 !
12
0$
1+
1,
1#
#830000
b11 !
b11 "
b10 !
10
02
11
1$
0+
0,
0#
#835000
b11 !
12
0$
1+
#840000
b111 "
b101 "
b1 !
b100 "
b0 !
02
01
00
0/
1.
1$
0+
1,
0,
1#
0#
#845000
b1 !
12
0$
#850000
b11 !
b101 "
b10 !
10
02
11
1$
1,
1#
#855000
b11 !
12
0$
1+
0,
0#
#860000
b111 "
b1 !
b110 "
b0 !
02
01
00
1/
1$
0+
1,
0,
1#
0#
#865000
b1 !
12
0$
1+
1,
1#
#870000
b11 !
b111 "
b10 !
10
02
11
1$
0+
0,
1,
0#
1#
#875000
b11 !
12
0$
1+
0,
0#
#880000
b1111 "
b1011 "
b1001 "
b1 !
b1000 "
b0 !
02
01
00
0/
0.
1-
1$
0+
1,
0,
1#
0#
#885000
b1 !
12
0$
#890000
b11 !
b1001 "
b10 !
10
02
11
1$
#895000
b11 !
12
0$
1+
1,
1#
#900000
b1011 "
b1 !
b1010 "
b0 !
02
01
00
1/
1$
0+
0,
0#
#905000
b1 !
12
0$
1+
1,
1#
#910000
b11 !
b1011 "
b10 !
10
02
11
1$
0+
0,
0#
#915000
b11 !
12
0$
1+
1,
1#
#920000
b1111 "
b1101 "
b1 !
b1100 "
b0 !
02
01
00
0/
1.
1$
0+
0,
0#
#925000
b1 !
12
0$
#930000
b11 !
b1101 "
b10 !
10
02
11
1$
1,
1#
#935000
b11 !
12
0$
1+
#940000
b1111 "
b1 !
b1110 "
b0 !
02
01
00
1/
1$
0+
0,
0#
#945000
b1 !
12
0$
1+
1,
1#
#950000
b11 !
b1111 "
b10 !
10
02
11
1$
0+
#955000
b11 !
12
0$
1+
#960000
b111 "
b11 "
b1 "
b1 !
b0 "
b0 !
02
01
00
0/
0.
0-
1$
0+
0,
0#
#965000
b1 !
12
0$
#970000
b11 !
b1 "
b10 !
10
02
11
1$
#975000
b11 !
12
0$
1+
#980000
b11 "
b1 !
b10 "
b0 !
02
01
00
1/
1$
0+
1,
0,
1#
0#
#985000
b1 !
12
0$
1+
1,
1#
#990000
b11 !
b11 "
b10 !
10
02
11
1$
0+
0,
0#
#995000
b11 !
12
0$
1+
