Projeto/somador_bin_par/simulation/qsim/somador_bin_par.msim.vcd
$comment
	File created using the following command:
		vcd file somador_bin_par.msim.vcd -direction
$end
$date
	Tue Jun 26 01:11:36 2018
$end
$version
	ModelSim Version 10.1d
$end
$timescale
	1ps
$end
$scope module somador_bin_par_vlg_vec_tst $end
$var reg 4 ! Av [3:0] $end
$var reg 4 " Bv [3:0] $end
$var reg 1 # C1in $end
$var wire 1 $ C1out $end
$var wire 1 % Sv [3] $end
$var wire 1 & Sv [2] $end
$var wire 1 ' Sv [1] $end
$var wire 1 ( Sv [0] $end
$var wire 1 ) sampler $end
$scope module i1 $end
$var wire 1 * gnd $end
$var wire 1 + vcc $end
$var wire 1 , unknown $end
$var tri1 1 - devclrn $end
$var tri1 1 . devpor $end
$var tri1 1 / devoe $end
$var wire 1 0 C1in~combout $end
$var wire 1 1 L1|S~1_cout $end
$var wire 1 2 L1|S~2_combout $end
$var wire 1 3 L1|S~3 $end
$var wire 1 4 L1|S~4_combout $end
$var wire 1 5 L1|S~5 $end
$var wire 1 6 L1|S~6_combout $end
$var wire 1 7 L1|S~7 $end
$var wire 1 8 L1|S~8_combout $end
$var wire 1 9 L1|S~9 $end
$var wire 1 : L1|S~10_combout $end
$var wire 1 ; Bv~combout [3] $end
$var wire 1 < Bv~combout [2] $end
$var wire 1 = Bv~combout [1] $end
$var wire 1 > Bv~combout [0] $end
$var wire 1 ? Av~combout [3] $end
$var wire 1 @ Av~combout [2] $end
$var wire 1 A Av~combout [1] $end
$var wire 1 B Av~combout [0] $end
$upscope $end
$upscope $end
$enddefinitions $end
#0
$dumpvars
b0 !
b0 "
0#
0$
0(
0'
0&
0%
x)
0*
1+
x,
1-
1.
1/
00
01
02
13
04
05
06
17
08
09
0:
0>
0=
0<
0;
0B
0A
0@
0?
$end
#12500
b1 "
1>
0)
12
1(
#25000
b11 "
b10 "
0>
1=
1)
02
14
0(
1'
#37500
b11 "
1>
0)
12
1(
#50000
b111 "
b101 "
b100 "
0>
0=
1<
1)
02
04
16
0(
0'
1&
#62500
b101 "
1>
0)
12
1(
#75000
b111 "
b110 "
0>
1=
1)
02
14
0(
1'
#87500
b111 "
1>
0)
12
1(
#100000
b1111 "
b1011 "
b1001 "
b1000 "
0>
0=
0<
1;
1)
02
04
06
18
0(
0'
0&
1%
#112500
b1001 "
1>
0)
12
1(
#125000
b1011 "
b1010 "
0>
1=
1)
02
14
0(
1'
#137500
b1011 "
1>
0)
12
1(
#150000
b1111 "
b1101 "
b1100 "
0>
0=
1<
1)
02
04
16
0(
0'
1&
#162500
b1101 "
1>
0)
12
1(
#175000
b1111 "
b1110 "
0>
1=
1)
02
14
0(
1'
#187500
b1111 "
1>
0)
12
1(
#200000
b1 !
b111 "
b11 "
b1 "
b0 "
0>
0=
0<
0;
1B
1)
04
06
08
0'
0&
0%
#212500
b1 "
1>
0)
03
02
14
0(
1'
#225000
b11 "
b10 "
0>
1=
1)
13
12
15
04
05
14
16
1(
0'
06
1'
1&
0&
#237500
b11 "
1>
0)
03
02
15
04
0(
16
0'
1&
#250000
b111 "
b101 "
b100 "
0>
0=
1<
1)
13
12
05
14
07
06
04
17
16
18
1(
1'
0&
08
0'
1&
1%
0%
#262500
b101 "
1>
0)
03
02
14
0(
1'
#275000
b111 "
b110 "
0>
1=
1)
13
12
15
04
05
14
07
06
1(
0'
17
16
18
1'
0&
08
1&
1%
0%
#287500
b111 "
1>
0)
03
02
15
04
0(
07
06
0'
18
0&
1%
#300000
b1111 "
b1011 "
b1001 "
b1000 "
0>
0=
0<
1;
1)
13
12
05
14
17
16
19
08
04
06
09
18
1:
1(
1'
1&
0%
0:
0'
0&
1%
1$
0$
#312500
b1001 "
1>
0)
03
02
14
0(
1'
#325000
b1011 "
b1010 "
0>
1=
1)
13
12
15
04
05
14
16
1(
0'
06
1'
1&
0&
#337500
b1011 "
1>
0)
03
02
15
04
0(
16
0'
1&
#350000
b1111 "
b1101 "
b1100 "
0>
0=
1<
1)
13
12
05
14
07
06
04
17
16
19
08
1(
1'
0&
09
18
1:
0'
1&
0%
0:
1%
1$
0$
#362500
b1101 "
1>
0)
03
02
14
0(
1'
#375000
b1111 "
b1110 "
0>
1=
1)
13
12
15
04
05
14
07
06
1(
0'
17
16
19
08
1'
0&
09
18
1:
1&
0%
0:
1%
1$
0$
#387500
b1111 "
1>
0)
03
02
15
04
0(
07
06
0'
19
08
0&
1:
0%
1$
#400000
b11 !
b10 !
b111 "
b11 "
b1 "
b0 "
0>
0=
0<
0;
0B
1A
1)
13
17
16
09
18
05
14
08
0:
1&
1%
06
1'
0%
0$
0&
#412500
b1 "
1>
0)
12
1(
#425000
b11 "
b10 "
0>
1=
1)
02
15
04
16
0(
0'
1&
#437500
b11 "
1>
0)
12
1(
#450000
b111 "
b101 "
b100 "
0>
0=
1<
1)
02
05
14
07
06
17
16
18
0(
1'
0&
08
1&
1%
0%
#462500
b101 "
1>
0)
12
1(
#475000
b111 "
b110 "
0>
1=
1)
02
15
04
07
06
0(
0'
18
0&
1%
#487500
b111 "
1>
0)
12
1(
#500000
b1111 "
b1011 "
b1001 "
b1000 "
0>
0=
0<
1;
1)
02
05
14
17
16
19
08
06
09
18
1:
0(
1'
1&
0%
0:
0&
1%
1$
0$
#512500
b1001 "
1>
0)
12
1(
#525000
b1011 "
b1010 "
0>
1=
1)
02
15
04
16
0(
0'
1&
#537500
b1011 "
1>
0)
12
1(
#550000
b1111 "
b1101 "
b1100 "
0>
0=
1<
1)
02
05
14
07
06
17
16
19
08
0(
1'
0&
09
18
1:
1&
0%
0:
1%
1$
0$
#562500
b1101 "
1>
0)
12
1(
#575000
b1111 "
b1110 "
0>
1=
1)
02
15
04
07
06
0(
0'
19
08
0&
1:
0%
1$
#587500
b1111 "
1>
0)
12
1(
#600000
b11 !
b111 "
b11 "
b1 "
b0 "
0>
0=
0<
0;
1B
1)
05
14
17
16
09
18
06
08
0:
1'
1&
1%
0&
0%
0$
#612500
b1 "
1>
0)
03
02
15
04
0(
16
0'
1&
#625000
b11 "
b10 "
0>
1=
1)
13
12
14
04
1(
1'
0'
#637500
b11 "
1>
0)
03
02
14
0(
1'
#650000
b111 "
b101 "
b100 "
0>
0=
1<
1)
13
12
04
07
06
05
14
18
1(
0'
0&
17
16
1'
1%
08
1&
0%
#662500
b101 "
1>
0)
03
02
15
04
0(
07
06
0'
18
0&
1%
#675000
b111 "
b110 "
0>
1=
1)
13
12
14
04
1(
1'
0'
#687500
b111 "
1>
0)
03
02
14
0(
1'
#700000
b1111 "
b1011 "
b1001 "
b1000 "
0>
0=
0<
1;
1)
13
12
04
17
16
19
08
05
14
09
18
1:
1(
0'
1&
0%
06
0:
1'
1%
1$
0&
0$
#712500
b1001 "
1>
0)
03
02
15
04
0(
16
0'
1&
#725000
b1011 "
b1010 "
0>
1=
1)
13
12
14
04
1(
1'
0'
#737500
b1011 "
1>
0)
03
02
14
0(
1'
#750000
b1111 "
b1101 "
b1100 "
0>
0=
1<
1)
13
12
04
07
06
05
14
19
08
1(
0'
0&
17
16
1:
1'
0%
09
18
1&
1$
0:
1%
0$
#762500
b1101 "
1>
0)
03
02
15
04
0(
07
06
0'
19
08
0&
1:
0%
1$
#775000
b1111 "
b1110 "
0>
1=
1)
13
12
14
04
1(
1'
0'
#787500
b1111 "
1>
0)
03
02
14
0(
1'
#800000
b111 !
b101 !
b100 !
b111 "
b11 "
b1 "
b0 "
0>
0=
0<
0;
0B
0A
1@
1)
13
05
09
18
04
17
16
0:
1%
08
0'
1&
0$
0%
#812500
b1 "
1>
0)
12
1(
#825000
b11 "
b10 "
0>
1=
1)
02
14
0(
1'
#837500
b11 "
1>
0)
12
1(
#850000
b111 "
b101 "
b100 "
0>
0=
1<
1)
02
04
07
06
18
0(
0'
0&
1%
#862500
b101 "
1>
0)
12
1(
#875000
b111 "
b110 "
0>
1=
1)
02
14
0(
1'
#887500
b111 "
1>
0)
12
1(
#900000
b1111 "
b1011 "
b1001 "
b1000 "
0>
0=
0<
1;
1)
02
04
17
16
19
08
09
18
1:
0(
0'
1&
0%
0:
1%
1$
0$
#912500
b1001 "
1>
0)
12
1(
#925000
b1011 "
b1010 "
0>
1=
1)
02
14
0(
1'
#937500
b1011 "
1>
0)
12
1(
#950000
b1111 "
b1101 "
b1100 "
0>
0=
1<
1)
02
04
07
06
19
08
0(
0'
0&
1:
0%
1$
#962500
b1101 "
1>
0)
12
1(
#975000
b1111 "
b1110 "
0>
1=
1)
02
14
0(
1'
#987500
b1111 "
1>
0)
12
1(
#1000000
b101 !
b111 "
b11 "
b1 "
b0 "
0>
0=
0<
0;
1B
1)
04
17
16
09
18
08
0:
0'
1&
1%
0%
0$
#1012500
b1 "
1>
0)
03
02
14
0(
1'
#1025000
b11 "
b10 "
0>
1=
1)
13
12
15
04
05
14
07
06
1(
0'
17
16
18
1'
0&
08
1&
1%
0%
#1037500
b11 "
1>
0)
03
02
15
04
0(
07
06
0'
18
0&
1%
#1050000
b111 "
b101 "
b100 "
0>
0=
1<
1)
13
12
05
14
16
04
06
1(
1'
1&
0'
0&
#1062500
b101 "
1>
0)
03
02
14
0(
1'
#1075000
b111 "
b110 "
0>
1=
1)
13
12
15
04
05
14
16
1(
0'
06
1'
1&
0&
#1087500
b111 "
1>
0)
03
02
15
04
0(
16
0'
1&
#1100000
b1111 "
b1011 "
b1001 "
b1000 "
0>
0=
0<
1;
1)
13
12
05
14
06
19
08
04
17
16
1:
1(
1'
0&
0%
09
18
0'
1&
1$
0:
1%
0$
#1112500
b1001 "
1>
0)
03
02
14
0(
1'
#1125000
b1011 "
b1010 "
0>
1=
1)
13
12
15
04
05
14
07
06
1(
0'
17
16
19
08
1'
0&
09
18
1:
1&
0%
0:
1%
1$
0$
#1137500
b1011 "
1>
0)
03
02
15
04
0(
07
06
0'
19
08
0&
1:
0%
1$
#1150000
b1111 "
b1101 "
b1100 "
0>
0=
1<
1)
13
12
05
14
16
04
06
1(
1'
1&
0'
0&
#1162500
b1101 "
1>
0)
03
02
14
0(
1'
#1175000
b1111 "
b1110 "
0>
1=
1)
13
12
15
04
05
14
16
1(
0'
06
1'
1&
0&
#1187500
b1111 "
1>
0)
03
02
15
04
0(
16
0'
1&
#1200000
b111 !
b110 !
b111 "
b11 "
b1 "
b0 "
0>
0=
0<
0;
0B
1A
1)
13
06
09
18
05
14
0:
0&
1%
17
16
1'
0$
08
1&
0%
#1212500
b1 "
1>
0)
12
1(
#1225000
b11 "
b10 "
0>
1=
1)
02
15
04
07
06
0(
0'
18
0&
1%
#1237500
b11 "
1>
0)
12
1(
#1250000
b111 "
b101 "
b100 "
0>
0=
1<
1)
02
05
14
16
06
0(
1'
1&
0&
#1262500
b101 "
1>
0)
12
1(
#1275000
b111 "
b110 "
0>
1=
1)
02
15
04
16
0(
0'
1&
#1287500
b111 "
1>
0)
12
1(
#1300000
b1111 "
b1011 "
b1001 "
b1000 "
0>
0=
0<
1;
1)
02
05
14
06
19
08
17
16
1:
0(
1'
0&
0%
09
18
1&
1$
0:
1%
0$
#1312500
b1001 "
1>
0)
12
1(
#1325000
b1011 "
b1010 "
0>
1=
1)
02
15
04
07
06
0(
0'
19
08
0&
1:
0%
1$
#1337500
b1011 "
1>
0)
12
1(
#1350000
b1111 "
b1101 "
b1100 "
0>
0=
1<
1)
02
05
14
16
06
0(
1'
1&
0&
#1362500
b1101 "
1>
0)
12
1(
#1375000
b1111 "
b1110 "
0>
1=
1)
02
15
04
16
0(
0'
1&
#1387500
b1111 "
1>
0)
12
1(
#1400000
b111 !
b111 "
b11 "
b1 "
b0 "
0>
0=
0<
0;
1B
1)
05
14
06
09
18
17
16
0:
1'
0&
1%
08
1&
0$
0%
#1412500
b1 "
1>
0)
03
02
15
04
0(
07
06
0'
18
0&
1%
#1425000
b11 "
b10 "
0>
1=
1)
13
12
14
04
1(
1'
0'
#1437500
b11 "
1>
0)
03
02
14
0(
1'
#1450000
b111 "
b101 "
b100 "
0>
0=
1<
1)
13
12
04
16
05
14
1(
0'
1&
06
1'
0&
#1462500
b101 "
1>
0)
03
02
15
04
0(
16
0'
1&
#1475000
b111 "
b110 "
0>
1=
1)
13
12
14
04
1(
1'
0'
#1487500
b111 "
1>
0)
03
02
14
0(
1'
#1500000
b1111 "
b1011 "
b1001 "
b1000 "
0>
0=
0<
1;
1)
13
12
04
06
19
08
05
14
1:
1(
0'
0&
0%
17
16
1'
1$
09
18
1&
0:
1%
0$
#1512500
b1001 "
1>
0)
03
02
15
04
0(
07
06
0'
19
08
0&
1:
0%
1$
#1525000
b1011 "
b1010 "
0>
1=
1)
13
12
14
04
1(
1'
0'
#1537500
b1011 "
1>
0)
03
02
14
0(
1'
#1550000
b1111 "
b1101 "
b1100 "
0>
0=
1<
1)
13
12
04
16
05
14
1(
0'
1&
06
1'
0&
#1562500
b1101 "
1>
0)
03
02
15
04
0(
16
0'
1&
#1575000
b1111 "
b1110 "
0>
1=
1)
13
12
14
04
1(
1'
0'
#1587500
b1111 "
1>
0)
03
02
14
0(
1'
#1600000
b1111 !
b1011 !
b1001 !
b1000 !
b111 "
b11 "
b1 "
b0 "
0>
0=
0<
0;
0B
0A
0@
1?
1)
13
05
17
04
06
09
18
0:
0'
0&
1%
0$
#1612500
b1 "
1>
0)
12
1(
#1625000
b11 "
b10 "
0>
1=
1)
02
14
0(
1'
#1637500
b11 "
1>
0)
12
1(
#1650000
b111 "
b101 "
b100 "
0>
0=
1<
1)
02
04
16
0(
0'
1&
#1662500
b101 "
1>
0)
12
1(
#1675000
b111 "
b110 "
0>
1=
1)
02
14
0(
1'
#1687500
b111 "
1>
0)
12
1(
#1700000
b1111 "
b1011 "
b1001 "
b1000 "
0>
0=
0<
1;
1)
02
04
06
19
08
1:
0(
0'
0&
0%
1$
#1712500
b1001 "
1>
0)
12
1(
#1725000
b1011 "
b1010 "
0>
1=
1)
02
14
0(
1'
#1737500
b1011 "
1>
0)
12
1(
#1750000
b1111 "
b1101 "
b1100 "
0>
0=
1<
1)
02
04
16
0(
0'
1&
#1762500
b1101 "
1>
0)
12
1(
#1775000
b1111 "
b1110 "
0>
1=
1)
02
14
0(
1'
#1787500
b1111 "
1>
0)
12
1(
#1800000
b1001 !
b111 "
b11 "
b1 "
b0 "
0>
0=
0<
0;
1B
1)
04
06
09
18
0:
0'
0&
1%
0$
#1812500
b1 "
1>
0)
03
02
14
0(
1'
#1825000
b11 "
b10 "
0>
1=
1)
13
12
15
04
05
14
16
1(
0'
06
1'
1&
0&
#1837500
b11 "
1>
0)
03
02
15
04
0(
16
0'
1&
#1850000
b111 "
b101 "
b100 "
0>
0=
1<
1)
13
12
05
14
07
06
04
17
16
19
08
1(
1'
0&
09
18
1:
0'
1&
0%
0:
1%
1$
0$
#1862500
b101 "
1>
0)
03
02
14
0(
1'
#1875000
b111 "
b110 "
0>
1=
1)
13
12
15
04
05
14
07
06
1(
0'
17
16
19
08
1'
0&
09
18
1:
1&
0%
0:
1%
1$
0$
#1887500
b111 "
1>
0)
03
02
15
04
0(
07
06
0'
19
08
0&
1:
0%
1$
#1900000
b1111 "
b1011 "
b1001 "
b1000 "
0>
0=
0<
1;
1)
13
12
05
14
17
16
18
04
06
08
1(
1'
1&
1%
0'
0&
0%
#1912500
b1001 "
1>
0)
03
02
14
0(
1'
#1925000
b1011 "
b1010 "
0>
1=
1)
13
12
15
04
05
14
16
1(
0'
06
1'
1&
0&
#1937500
b1011 "
1>
0)
03
02
15
04
0(
16
0'
1&
#1950000
b1111 "
b1101 "
b1100 "
0>
0=
1<
1)
13
12
05
14
07
06
04
17
16
18
1(
1'
0&
08
0'
1&
1%
0%
#1962500
b1101 "
1>
0)
03
02
14
0(
1'
#1975000
b1111 "
b1110 "
0>
1=
1)
13
12
15
04
05
14
07
06
1(
0'
17
16
18
1'
0&
08
1&
1%
0%
#1987500
b1111 "
1>
0)
03
02
15
04
0(
07
06
0'
18
0&
1%
#2000000
b1011 !
b1010 !
b111 "
b11 "
b1 "
b0 "
0>
0=
0<
0;
0B
1A
1)
13
17
16
08
05
14
09
18
1&
0%
06
0:
1'
1%
0&
0$
#2012500
b1 "
1>
0)
12
1(
#2025000
b11 "
b10 "
0>
1=
1)
02
15
04
16
0(
0'
1&
#2037500
b11 "
1>
0)
12
1(
#2050000
b111 "
b101 "
b100 "
0>
0=
1<
1)
02
05
14
07
06
17
16
19
08
0(
1'
0&
09
18
1:
1&
0%
0:
1%
1$
0$
#2062500
b101 "
1>
0)
12
1(
#2075000
b111 "
b110 "
0>
1=
1)
02
15
04
07
06
0(
0'
19
08
0&
1:
0%
1$
#2087500
b111 "
1>
0)
12
1(
#2100000
b1111 "
b1011 "
b1001 "
b1000 "
0>
0=
0<
1;
1)
02
05
14
17
16
18
06
08
0(
1'
1&
1%
0&
0%
#2112500
b1001 "
1>
0)
12
1(
#2125000
b1011 "
b1010 "
0>
1=
1)
02
15
04
16
0(
0'
1&
#2137500
b1011 "
1>
0)
12
1(
#2150000
b1111 "
b1101 "
b1100 "
0>
0=
1<
1)
02
05
14
07
06
17
16
18
0(
1'
0&
08
1&
1%
0%
#2162500
b1101 "
1>
0)
12
1(
#2175000
b1111 "
b1110 "
0>
1=
1)
02
15
04
07
06
0(
0'
18
0&
1%
#2187500
b1111 "
1>
0)
12
1(
#2200000
b1011 !
b111 "
b11 "
b1 "
b0 "
0>
0=
0<
0;
1B
1)
05
14
17
16
08
06
09
18
1'
1&
0%
0:
0&
1%
0$
#2212500
b1 "
1>
0)
03
02
15
04
0(
16
0'
1&
#2225000
b11 "
b10 "
0>
1=
1)
13
12
14
04
1(
1'
0'
#2237500
b11 "
1>
0)
03
02
14
0(
1'
#2250000
b111 "
b101 "
b100 "
0>
0=
1<
1)
13
12
04
07
06
05
14
19
08
1(
0'
0&
17
16
1:
1'
0%
09
18
1&
1$
0:
1%
0$
#2262500
b101 "
1>
0)
03
02
15
04
0(
07
06
0'
19
08
0&
1:
0%
1$
#2275000
b111 "
b110 "
0>
1=
1)
13
12
14
04
1(
1'
0'
#2287500
b111 "
1>
0)
03
02
14
0(
1'
#2300000
b1111 "
b1011 "
b1001 "
b1000 "
0>
0=
0<
1;
1)
13
12
04
17
16
18
05
14
08
1(
0'
1&
1%
06
1'
0%
0&
#2312500
b1001 "
1>
0)
03
02
15
04
0(
16
0'
1&
#2325000
b1011 "
b1010 "
0>
1=
1)
13
12
14
04
1(
1'
0'
#2337500
b1011 "
1>
0)
03
02
14
0(
1'
#2350000
b1111 "
b1101 "
b1100 "
0>
0=
1<
1)
13
12
04
07
06
05
14
18
1(
0'
0&
17
16
1'
1%
08
1&
0%
#2362500
b1101 "
1>
0)
03
02
15
04
0(
07
06
0'
18
0&
1%
#2375000
b1111 "
b1110 "
0>
1=
1)
13
12
14
04
1(
1'
0'
#2387500
b1111 "
1>
0)
03
02
14
0(
1'
#2400000
b1111 !
b1101 !
b1100 !
b111 "
b11 "
b1 "
b0 "
0>
0=
0<
0;
0B
0A
1@
1)
13
05
08
04
17
16
0%
09
18
0'
1&
0:
1%
0$
#2412500
b1 "
1>
0)
12
1(
#2425000
b11 "
b10 "
0>
1=
1)
02
14
0(
1'
#2437500
b11 "
1>
0)
12
1(
#2450000
b111 "
b101 "
b100 "
0>
0=
1<
1)
02
04
07
06
19
08
0(
0'
0&
1:
0%
1$
#2462500
b101 "
1>
0)
12
1(
#2475000
b111 "
b110 "
0>
1=
1)
02
14
0(
1'
#2487500
b111 "
1>
0)
12
1(
#2500000
b1111 "
b1011 "
b1001 "
b1000 "
0>
0=
0<
1;
1)
02
04
17
16
18
08
0(
0'
1&
1%
0%
#2512500
b1001 "
1>
0)
12
1(
#2525000
b1011 "
b1010 "
0>
1=
1)
02
14
0(
1'
#2537500
b1011 "
1>
0)
12
1(
#2550000
b1111 "
b1101 "
b1100 "
0>
0=
1<
1)
02
04
07
06
18
0(
0'
0&
1%
#2562500
b1101 "
1>
0)
12
1(
#2575000
b1111 "
b1110 "
0>
1=
1)
02
14
0(
1'
#2587500
b1111 "
1>
0)
12
1(
#2600000
b1101 !
b111 "
b11 "
b1 "
b0 "
0>
0=
0<
0;
1B
1)
04
17
16
08
09
18
0'
1&
0%
0:
1%
0$
#2612500
b1 "
1>
0)
03
02
14
0(
1'
#2625000
b11 "
b10 "
0>
1=
1)
13
12
15
04
05
14
07
06
1(
0'
17
16
19
08
1'
0&
09
18
1:
1&
0%
0:
1%
1$
0$
#2637500
b11 "
1>
0)
03
02
15
04
0(
07
06
0'
19
08
0&
1:
0%
1$
#2650000
b111 "
b101 "
b100 "
0>
0=
1<
1)
13
12
05
14
16
04
06
1(
1'
1&
0'
0&
#2662500
b101 "
1>
0)
03
02
14
0(
1'
#2675000
b111 "
b110 "
0>
1=
1)
13
12
15
04
05
14
16
1(
0'
06
1'
1&
0&
#2687500
b111 "
1>
0)
03
02
15
04
0(
16
0'
1&
#2700000
b1111 "
b1011 "
b1001 "
b1000 "
0>
0=
0<
1;
1)
13
12
05
14
06
18
04
17
16
1(
1'
0&
1%
08
0'
1&
0%
#2712500
b1001 "
1>
0)
03
02
14
0(
1'
#2725000
b1011 "
b1010 "
0>
1=
1)
13
12
15
04
05
14
07
06
1(
0'
17
16
18
1'
0&
08
1&
1%
0%
#2737500
b1011 "
1>
0)
03
02
15
04
0(
07
06
0'
18
0&
1%
#2750000
b1111 "
b1101 "
b1100 "
0>
0=
1<
1)
13
12
05
14
16
04
06
1(
1'
1&
0'
0&
#2762500
b1101 "
1>
0)
03
02
14
0(
1'
#2775000
b1111 "
b1110 "
0>
1=
1)
13
12
15
04
05
14
16
1(
0'
06
1'
1&
0&
#2787500
b1111 "
1>
0)
03
02
15
04
0(
16
0'
1&
#2800000
b1111 !
b1110 !
b111 "
b11 "
b1 "
b0 "
0>
0=
0<
0;
0B
1A
1)
13
06
08
05
14
0&
0%
17
16
1'
09
18
1&
0:
1%
0$
#2812500
b1 "
1>
0)
12
1(
#2825000
b11 "
b10 "
0>
1=
1)
02
15
04
07
06
0(
0'
19
08
0&
1:
0%
1$
#2837500
b11 "
1>
0)
12
1(
#2850000
b111 "
b101 "
b100 "
0>
0=
1<
1)
02
05
14
16
06
0(
1'
1&
0&
#2862500
b101 "
1>
0)
12
1(
#2875000
b111 "
b110 "
0>
1=
1)
02
15
04
16
0(
0'
1&
#2887500
b111 "
1>
0)
12
1(
#2900000
b1111 "
b1011 "
b1001 "
b1000 "
0>
0=
0<
1;
1)
02
05
14
06
18
17
16
0(
1'
0&
1%
08
1&
0%
#2912500
b1001 "
1>
0)
12
1(
#2925000
b1011 "
b1010 "
0>
1=
1)
02
15
04
07
06
0(
0'
18
0&
1%
#2937500
b1011 "
1>
0)
12
1(
#2950000
b1111 "
b1101 "
b1100 "
0>
0=
1<
1)
02
05
14
16
06
0(
1'
1&
0&
#2962500
b1101 "
1>
0)
12
1(
#2975000
b1111 "
b1110 "
0>
1=
1)
02
15
04
16
0(
0'
1&
#2987500
b1111 "
1>
0)
12
1(
#3000000
b1111 !
b111 "
b11 "
b1 "
b0 "
0>
0=
0<
0;
1B
1)
05
14
06
08
17
16
1'
0&
0%
09
18
1&
0:
1%
0$
#3012500
b1 "
1>
0)
03
02
15
04
0(
07
06
0'
19
08
0&
1:
0%
1$
#3025000
b11 "
b10 "
0>
1=
1)
13
12
14
04
1(
1'
0'
#3037500
b11 "
1>
0)
03
02
14
0(
1'
#3050000
b111 "
b101 "
b100 "
0>
0=
1<
1)
13
12
04
16
05
14
1(
0'
1&
06
1'
0&
#3062500
b101 "
1>
0)
03
02
15
04
0(
16
0'
1&
#3075000
b111 "
b110 "
0>
1=
1)
13
12
14
04
1(
1'
0'
#3087500
b111 "
1>
0)
03
02
14
0(
1'
#3100000
b1111 "
b1011 "
b1001 "
b1000 "
0>
0=
0<
1;
1)
13
12
04
06
18
05
14
1(
0'
0&
1%
17
16
1'
08
1&
0%
#3112500
b1001 "
1>
0)
03
02
15
04
0(
07
06
0'
18
0&
1%
#3125000
b1011 "
b1010 "
0>
1=
1)
13
12
14
04
1(
1'
0'
#3137500
b1011 "
1>
0)
03
02
14
0(
1'
#3150000
b1111 "
b1101 "
b1100 "
0>
0=
1<
1)
13
12
04
16
05
14
1(
0'
1&
06
1'
0&
#3162500
b1101 "
1>
0)
03
02
15
04
0(
16
0'
1&
#3175000
b1111 "
b1110 "
0>
1=
1)
13
12
14
04
1(
1'
0'
#3187500
b1111 "
1>
0)
03
02
14
0(
1'
#3200000
b111 !
b11 !
b1 !
b0 !
b111 "
b11 "
b1 "
b0 "
0>
0=
0<
0;
0B
0A
0@
0?
1)
13
05
17
09
04
06
08
0:
0'
0&
0%
0$
#3212500
b1 "
1>
0)
12
1(
#3225000
b11 "
b10 "
0>
1=
1)
02
14
0(
1'
#3237500
b11 "
1>
0)
12
1(
#3250000
b111 "
b101 "
b100 "
0>
0=
1<
1)
02
04
16
0(
0'
1&
#3262500
b101 "
1>
0)
12
1(
#3275000
b111 "
b110 "
0>
1=
1)
02
14
0(
1'
#3287500
b111 "
1>
0)
12
1(
#3300000
b1111 "
b1011 "
b1001 "
b1000 "
0>
0=
0<
1;
1)
02
04
06
18
0(
0'
0&
1%
#3312500
b1001 "
1>
0)
12
1(
#3325000
b1011 "
b1010 "
0>
1=
1)
02
14
0(
1'
#3337500
b1011 "
1>
0)
12
1(
#3350000
b1111 "
b1101 "
b1100 "
0>
0=
1<
1)
02
04
16
0(
0'
1&
#3362500
b1101 "
1>
0)
12
1(
#3375000
b1111 "
b1110 "
0>
1=
1)
02
14
0(
1'
#3387500
b1111 "
1>
0)
12
1(
#3400000
b1 !
b111 "
b11 "
b1 "
b0 "
0>
0=
0<
0;
1B
1)
04
06
08
0'
0&
0%
#3412500
b1 "
1>
0)
03
02
14
0(
1'
#3425000
b11 "
b10 "
0>
1=
1)
13
12
15
04
05
14
16
1(
0'
06
1'
1&
0&
#3437500
b11 "
1>
0)
03
02
15
04
0(
16
0'
1&
#3450000
b111 "
b101 "
b100 "
0>
0=
1<
1)
13
12
05
14
07
06
04
17
16
18
1(
1'
0&
08
0'
1&
1%
0%
#3462500
b101 "
1>
0)
03
02
14
0(
1'
#3475000
b111 "
b110 "
0>
1=
1)
13
12
15
04
05
14
07
06
1(
0'
17
16
18
1'
0&
08
1&
1%
0%
#3487500
b111 "
1>
0)
03
02
15
04
0(
07
06
0'
18
0&
1%
#3500000
b1111 "
b1011 "
b1001 "
b1000 "
0>
0=
0<
1;
1)
13
12
05
14
17
16
19
08
04
06
09
18
1:
1(
1'
1&
0%
0:
0'
0&
1%
1$
0$
#3512500
b1001 "
1>
0)
03
02
14
0(
1'
#3525000
b1011 "
b1010 "
0>
1=
1)
13
12
15
04
05
14
16
1(
0'
06
1'
1&
0&
#3537500
b1011 "
1>
0)
03
02
15
04
0(
16
0'
1&
#3550000
b1111 "
b1101 "
b1100 "
0>
0=
1<
1)
13
12
05
14
07
06
04
17
16
19
08
1(
1'
0&
09
18
1:
0'
1&
0%
0:
1%
1$
0$
#3562500
b1101 "
1>
0)
03
02
14
0(
1'
#3575000
b1111 "
b1110 "
0>
1=
1)
13
12
15
04
05
14
07
06
1(
0'
17
16
19
08
1'
0&
09
18
1:
1&
0%
0:
1%
1$
0$
#3587500
b1111 "
1>
0)
03
02
15
04
0(
07
06
0'
19
08
0&
1:
0%
1$
#3600000
b11 !
b10 !
b111 "
b11 "
b1 "
b0 "
0>
0=
0<
0;
0B
1A
1)
13
17
16
09
18
05
14
08
0:
1&
1%
06
1'
0%
0$
0&
#3612500
b1 "
1>
0)
12
1(
#3625000
b11 "
b10 "
0>
1=
1)
02
15
04
16
0(
0'
1&
#3637500
b11 "
1>
0)
12
1(
#3650000
b111 "
b101 "
b100 "
0>
0=
1<
1)
02
05
14
07
06
17
16
18
0(
1'
0&
08
1&
1%
0%
#3662500
b101 "
1>
0)
12
1(
#3675000
b111 "
b110 "
0>
1=
1)
02
15
04
07
06
0(
0'
18
0&
1%
#3687500
b111 "
1>
0)
12
1(
#3700000
b1111 "
b1011 "
b1001 "
b1000 "
0>
0=
0<
1;
1)
02
05
14
17
16
19
08
06
09
18
1:
0(
1'
1&
0%
0:
0&
1%
1$
0$
#3712500
b1001 "
1>
0)
12
1(
#3725000
b1011 "
b1010 "
0>
1=
1)
02
15
04
16
0(
0'
1&
#3737500
b1011 "
1>
0)
12
1(
#3750000
b1111 "
b1101 "
b1100 "
0>
0=
1<
1)
02
05
14
07
06
17
16
19
08
0(
1'
0&
09
18
1:
1&
0%
0:
1%
1$
0$
#3762500
b1101 "
1>
0)
12
1(
#3775000
b1111 "
b1110 "
0>
1=
1)
02
15
04
07
06
0(
0'
19
08
0&
1:
0%
1$
#3787500
b1111 "
1>
0)
12
1(
#3800000
b11 !
b111 "
b11 "
b1 "
b0 "
0>
0=
0<
0;
1B
1)
05
14
17
16
09
18
06
08
0:
1'
1&
1%
0&
0%
0$
#3812500
b1 "
1>
0)
03
02
15
04
0(
16
0'
1&
#3825000
b11 "
b10 "
0>
1=
1)
13
12
14
04
1(
1'
0'
#3837500
b11 "
1>
0)
03
02
14
0(
1'
#3850000
b111 "
b101 "
b100 "
0>
0=
1<
1)
13
12
04
07
06
05
14
18
1(
0'
0&
17
16
1'
1%
08
1&
0%
#3862500
b101 "
1>
0)
03
02
15
04
0(
07
06
0'
18
0&
1%
#3875000
b111 "
b110 "
0>
1=
1)
13
12
14
04
1(
1'
0'
#3887500
b111 "
1>
0)
03
02
14
0(
1'
#3900000
b1111 "
b1011 "
b1001 "
b1000 "
0>
0=
0<
1;
1)
13
12
04
17
16
19
08
05
14
09
18
1:
1(
0'
1&
0%
06
0:
1'
1%
1$
0&
0$
