Projeto/bcd_behavioral/simulation/qsim/bcd_behavioral.msim.vcd
$comment
	File created using the following command:
		vcd file bcd_behavioral.msim.vcd -direction
$end
$date
	Mon Jul 02 22:09:11 2018
$end
$version
	ModelSim Version 10.1d
$end
$timescale
	1ps
$end
$scope module bcd_behavioral_vlg_vec_tst $end
$var reg 4 ! Av [3:0] $end
$var wire 1 " Bv [7] $end
$var wire 1 # Bv [6] $end
$var wire 1 $ Bv [5] $end
$var wire 1 % Bv [4] $end
$var wire 1 & Bv [3] $end
$var wire 1 ' Bv [2] $end
$var wire 1 ( Bv [1] $end
$var wire 1 ) Bv [0] $end
$var wire 1 * sampler $end
$scope module i1 $end
$var wire 1 + gnd $end
$var wire 1 , vcc $end
$var wire 1 - unknown $end
$var tri1 1 . devclrn $end
$var tri1 1 / devpor $end
$var tri1 1 0 devoe $end
$var wire 1 1 Selector1~0_combout $end
$var wire 1 2 Selector0~0_combout $end
$var wire 1 3 aux~0_combout $end
$var wire 1 4 LessThan1~0_combout $end
$var wire 1 5 Av~combout [3] $end
$var wire 1 6 Av~combout [2] $end
$var wire 1 7 Av~combout [1] $end
$var wire 1 8 Av~combout [0] $end
$upscope $end
$upscope $end
$enddefinitions $end
#0
$dumpvars
b0 !
0)
0(
0'
0&
0%
0$
0#
0"
x*
0+
1,
x-
1.
1/
10
01
02
03
04
08
07
06
05
$end
#10000
b1 !
18
0*
1)
#20000
b11 !
b10 !
08
17
1*
11
0)
1(
#30000
b11 !
18
0*
1)
#40000
b111 !
b101 !
b100 !
08
07
16
1*
12
01
0)
1'
0(
#50000
b101 !
18
0*
1)
#60000
b111 !
b110 !
08
17
1*
11
0)
1(
#70000
b111 !
18
0*
1)
#80000
b1111 !
b1011 !
b1001 !
b1000 !
08
07
06
15
1*
13
02
01
0)
1&
0'
0(
#90000
b1001 !
18
0*
1)
#100000
b1011 !
b1010 !
08
17
1*
14
03
0)
1%
0&
#110000
b1011 !
18
0*
1)
#120000
b1111 !
b1101 !
b1100 !
08
07
16
1*
11
0)
1(
#130000
b1101 !
18
0*
1)
#140000
b1111 !
b1110 !
08
17
1*
12
01
0)
1'
0(
#150000
b1111 !
18
0*
1)
#160000
b111 !
b11 !
b1 !
b0 !
08
07
06
05
1*
04
02
0)
0%
0'
#170000
b1 !
18
0*
1)
#180000
b11 !
b10 !
08
17
1*
11
0)
1(
#190000
b11 !
18
0*
1)
#200000
b111 !
b101 !
b100 !
08
07
16
1*
12
01
0)
1'
0(
#210000
b101 !
18
0*
1)
#220000
b111 !
b110 !
08
17
1*
11
0)
1(
#230000
b111 !
18
0*
1)
#240000
b1111 !
b1011 !
b1001 !
b1000 !
08
07
06
15
1*
13
02
01
0)
1&
0'
0(
#250000
b1001 !
18
0*
1)
#260000
b1011 !
b1010 !
08
17
1*
14
03
0)
1%
0&
#270000
b1011 !
18
0*
1)
#280000
b1111 !
b1101 !
b1100 !
08
07
16
1*
11
0)
1(
#290000
b1101 !
18
0*
1)
#300000
b1111 !
b1110 !
08
17
1*
12
01
0)
1'
0(
#310000
b1111 !
18
0*
1)
#320000
b111 !
b11 !
b1 !
b0 !
08
07
06
05
1*
04
02
0)
0%
0'
#330000
b1 !
18
0*
1)
#340000
b11 !
b10 !
08
17
1*
11
0)
1(
#350000
b11 !
18
0*
1)
#360000
b111 !
b101 !
b100 !
08
07
16
1*
12
01
0)
1'
0(
#370000
b101 !
18
0*
1)
#380000
b111 !
b110 !
08
17
1*
11
0)
1(
#390000
b111 !
18
0*
1)
#400000
b1111 !
b1011 !
b1001 !
b1000 !
08
07
06
15
1*
13
02
01
0)
1&
0'
0(
#410000
b1001 !
18
0*
1)
#420000
b1011 !
b1010 !
08
17
1*
14
03
0)
1%
0&
#430000
b1011 !
18
0*
1)
#440000
b1111 !
b1101 !
b1100 !
08
07
16
1*
11
0)
1(
#450000
b1101 !
18
0*
1)
#460000
b1111 !
b1110 !
08
17
1*
12
01
0)
1'
0(
#470000
b1111 !
18
0*
1)
#480000
b111 !
b11 !
b1 !
b0 !
08
07
06
05
1*
04
02
0)
0%
0'
#490000
b1 !
18
0*
1)
#500000
b11 !
b10 !
08
17
1*
11
0)
1(
#510000
b11 !
18
0*
1)
#520000
b111 !
b101 !
b100 !
08
07
16
1*
12
01
0)
1'
0(
#530000
b101 !
18
0*
1)
#540000
b111 !
b110 !
08
17
1*
11
0)
1(
#550000
b111 !
18
0*
1)
#560000
b1111 !
b1011 !
b1001 !
b1000 !
08
07
06
15
1*
13
02
01
0)
1&
0'
0(
#570000
b1001 !
18
0*
1)
#580000
b1011 !
b1010 !
08
17
1*
14
03
0)
1%
0&
#590000
b1011 !
18
0*
1)
#600000
b1111 !
b1101 !
b1100 !
08
07
16
1*
11
0)
1(
#610000
b1101 !
18
0*
1)
#620000
b1111 !
b1110 !
08
17
1*
12
01
0)
1'
0(
#630000
b1111 !
18
0*
1)
#640000
b111 !
b11 !
b1 !
b0 !
08
07
06
05
1*
04
02
0)
0%
0'
#650000
b1 !
18
0*
1)
#660000
b11 !
b10 !
08
17
1*
11
0)
1(
#670000
b11 !
18
0*
1)
#680000
b111 !
b101 !
b100 !
08
07
16
1*
12
01
0)
1'
0(
#690000
b101 !
18
0*
1)
#700000
b111 !
b110 !
08
17
1*
11
0)
1(
#710000
b111 !
18
0*
1)
#720000
b1111 !
b1011 !
b1001 !
b1000 !
08
07
06
15
1*
13
02
01
0)
1&
0'
0(
#730000
b1001 !
18
0*
1)
#740000
b1011 !
b1010 !
08
17
1*
14
03
0)
1%
0&
#750000
b1011 !
18
0*
1)
#760000
b1111 !
b1101 !
b1100 !
08
07
16
1*
11
0)
1(
#770000
b1101 !
18
0*
1)
#780000
b1111 !
b1110 !
08
17
1*
12
01
0)
1'
0(
#790000
b1111 !
18
0*
1)
#800000
b111 !
b11 !
b1 !
b0 !
08
07
06
05
1*
04
02
0)
0%
0'
#810000
b1 !
18
0*
1)
#820000
b11 !
b10 !
08
17
1*
11
0)
1(
#830000
b11 !
18
0*
1)
#840000
b111 !
b101 !
b100 !
08
07
16
1*
12
01
0)
1'
0(
#850000
b101 !
18
0*
1)
#860000
b111 !
b110 !
08
17
1*
11
0)
1(
#870000
b111 !
18
0*
1)
#880000
b1111 !
b1011 !
b1001 !
b1000 !
08
07
06
15
1*
13
02
01
0)
1&
0'
0(
#890000
b1001 !
18
0*
1)
#900000
b1011 !
b1010 !
08
17
1*
14
03
0)
1%
0&
#910000
b1011 !
18
0*
1)
#920000
b1111 !
b1101 !
b1100 !
08
07
16
1*
11
0)
1(
#930000
b1101 !
18
0*
1)
#940000
b1111 !
b1110 !
08
17
1*
12
01
0)
1'
0(
#950000
b1111 !
18
0*
1)
#960000
b111 !
b11 !
b1 !
b0 !
08
07
06
05
1*
04
02
0)
0%
0'
#970000
b1 !
18
0*
1)
#980000
b11 !
b10 !
08
17
1*
11
0)
1(
#990000
b11 !
18
0*
1)
