Projeto/somador_paralelo_4bits/simulation/qsim/somador_paralelo_4bits.msim.vcd
$comment
	File created using the following command:
		vcd file somador_paralelo_4bits.msim.vcd -direction
$end
$date
	Mon Jul 02 21:47:11 2018
$end
$version
	ModelSim Version 10.1d
$end
$timescale
	1ps
$end
$scope module somador_paralelo_4bits_vlg_vec_tst $end
$var reg 4 ! A1 [3:0] $end
$var reg 4 " B1 [3:0] $end
$var reg 1 # Cin $end
$var wire 1 $ aS71 $end
$var wire 1 % aS72 $end
$var wire 1 & bS71 $end
$var wire 1 ' bS72 $end
$var wire 1 ( Cout $end
$var wire 1 ) cS71 $end
$var wire 1 * cS72 $end
$var wire 1 + dS71 $end
$var wire 1 , dS72 $end
$var wire 1 - eS71 $end
$var wire 1 . eS72 $end
$var wire 1 / fS71 $end
$var wire 1 0 fS72 $end
$var wire 1 1 gS71 $end
$var wire 1 2 gS72 $end
$var wire 1 3 sampler $end
$scope module i1 $end
$var wire 1 4 gnd $end
$var wire 1 5 vcc $end
$var wire 1 6 unknown $end
$var tri1 1 7 devclrn $end
$var tri1 1 8 devpor $end
$var tri1 1 9 devoe $end
$var wire 1 : Cin~combout $end
$var wire 1 ; L1|L1|S~1_cout $end
$var wire 1 < L1|L1|S~3 $end
$var wire 1 = L1|L1|S~5 $end
$var wire 1 > L1|L1|S~6_combout $end
$var wire 1 ? L1|L1|S~4_combout $end
$var wire 1 @ L1|L1|S~7 $end
$var wire 1 A L1|L1|S~8_combout $end
$var wire 1 B L1|L1|S~2_combout $end
$var wire 1 C L3|aS7~0_combout $end
$var wire 1 D L3|bS7~0_combout $end
$var wire 1 E L3|cS7~combout $end
$var wire 1 F L3|eS7~0_combout $end
$var wire 1 G L3|fS7~0_combout $end
$var wire 1 H L3|gS7~0_combout $end
$var wire 1 I L2|BCD1[0]~0_combout $end
$var wire 1 J L1|L1|S~9 $end
$var wire 1 K L1|L1|S~10_combout $end
$var wire 1 L B1~combout [3] $end
$var wire 1 M B1~combout [2] $end
$var wire 1 N B1~combout [1] $end
$var wire 1 O B1~combout [0] $end
$var wire 1 P A1~combout [3] $end
$var wire 1 Q A1~combout [2] $end
$var wire 1 R A1~combout [1] $end
$var wire 1 S A1~combout [0] $end
$upscope $end
$upscope $end
$enddefinitions $end
#0
$dumpvars
b0 !
b0 "
0#
1$
1%
1&
1'
0(
1)
1*
1+
1,
1-
1.
1/
10
01
02
x3
04
15
x6
17
18
19
0:
0;
1<
0=
0>
0?
1@
0A
0B
1C
1D
1E
1F
1G
0H
0I
0J
0K
0O
0N
0M
0L
0S
0R
0Q
0P
$end
#10000
b1 !
1S
03
1B
1H
11
#20000
b11 !
b10 !
0S
1R
13
0B
1?
0C
0F
0+
0$
0-
#30000
b11 !
1S
03
1B
1C
1+
1$
#40000
b111 !
b101 !
b100 !
0S
0R
1Q
13
0B
0?
1>
0G
1F
0E
0/
1-
0)
#50000
b101 !
1S
03
1B
1G
1/
#60000
b111 !
b110 !
0S
1R
13
0B
1?
1E
0D
1)
0&
#70000
b111 !
1S
03
1B
#80000
b1111 !
b1011 !
b1001 !
b1000 !
0S
0R
0Q
1P
13
0B
0?
0>
1A
0H
0G
0C
0F
1D
01
0/
0+
0$
0-
1&
#90000
b1001 !
1S
03
1B
1H
1G
1C
11
1/
1+
1$
#100000
b1011 !
b1010 !
0S
1R
13
0B
1?
0H
1I
1F
01
12
1-
#110000
b1011 !
1S
03
1B
1H
11
#120000
b1111 !
b1101 !
b1100 !
0S
0R
1Q
13
0B
0?
1>
0C
0F
0+
0$
0-
#130000
b1101 !
1S
03
1B
1C
1+
1$
#140000
b1111 !
b1110 !
0S
1R
13
0B
1?
0G
1F
0E
0/
1-
0)
#150000
b1111 !
1S
03
1B
1G
1/
#160000
b111 !
b11 !
b1 !
b0 !
0S
0R
0Q
0P
13
0B
0?
0>
0A
0H
0I
1E
01
02
1)
#170000
b1 !
1S
03
1B
1H
11
#180000
b11 !
b10 !
0S
1R
13
0B
1?
0C
0F
0+
0$
0-
#190000
b11 !
1S
03
1B
1C
1+
1$
#200000
b111 !
b101 !
b100 !
0S
0R
1Q
13
0B
0?
1>
0G
1F
0E
0/
1-
0)
#210000
b101 !
1S
03
1B
1G
1/
#220000
b111 !
b110 !
0S
1R
13
0B
1?
1E
0D
1)
0&
#230000
b111 !
1S
03
1B
#240000
b1111 !
b1011 !
b1001 !
b1000 !
0S
0R
0Q
1P
13
0B
0?
0>
1A
0H
0G
0C
0F
1D
01
0/
0+
0$
0-
1&
#250000
b1001 !
1S
03
1B
1H
1G
1C
11
1/
1+
1$
#260000
b1011 !
b1010 !
0S
1R
13
0B
1?
0H
1I
1F
01
12
1-
#270000
b1011 !
1S
03
1B
1H
11
#280000
b1111 !
b1101 !
b1100 !
0S
0R
1Q
13
0B
0?
1>
0C
0F
0+
0$
0-
#290000
b1101 !
1S
03
1B
1C
1+
1$
#300000
b1111 !
b1110 !
0S
1R
13
0B
1?
0G
1F
0E
0/
1-
0)
#310000
b1111 !
1S
03
1B
1G
1/
#320000
b111 !
b11 !
b1 !
b0 !
0S
0R
0Q
0P
13
0B
0?
0>
0A
0H
0I
1E
01
02
1)
#330000
b1 !
1S
03
1B
1H
11
#340000
b11 !
b10 !
0S
1R
13
0B
1?
0C
0F
0+
0$
0-
#350000
b11 !
1S
03
1B
1C
1+
1$
#360000
b111 !
b101 !
b100 !
0S
0R
1Q
13
0B
0?
1>
0G
1F
0E
0/
1-
0)
#370000
b101 !
1S
03
1B
1G
1/
#380000
b111 !
b110 !
0S
1R
13
0B
1?
1E
0D
1)
0&
#390000
b111 !
1S
03
1B
#400000
b1111 !
b1011 !
b1001 !
b1000 !
0S
0R
0Q
1P
13
0B
0?
0>
1A
0H
0G
0C
0F
1D
01
0/
0+
0$
0-
1&
#410000
b1001 !
1S
03
1B
1H
1G
1C
11
1/
1+
1$
#420000
b1011 !
b1010 !
0S
1R
13
0B
1?
0H
1I
1F
01
12
1-
#430000
b1011 !
1S
03
1B
1H
11
#440000
b1111 !
b1101 !
b1100 !
0S
0R
1Q
13
0B
0?
1>
0C
0F
0+
0$
0-
#450000
b1101 !
1S
03
1B
1C
1+
1$
#460000
b1111 !
b1110 !
0S
1R
13
0B
1?
0G
1F
0E
0/
1-
0)
#470000
b1111 !
1S
03
1B
1G
1/
#480000
b111 !
b11 !
b1 !
b0 !
0S
0R
0Q
0P
13
0B
0?
0>
0A
0H
0I
1E
01
02
1)
#490000
b1 !
1S
03
1B
1H
11
#500000
b11 !
b10 !
0S
1R
13
0B
1?
0C
0F
0+
0$
0-
#510000
b11 !
1S
03
1B
1C
1+
1$
#520000
b111 !
b101 !
b100 !
0S
0R
1Q
13
0B
0?
1>
0G
1F
0E
0/
1-
0)
#530000
b101 !
1S
03
1B
1G
1/
#540000
b111 !
b110 !
0S
1R
13
0B
1?
1E
0D
1)
0&
#550000
b111 !
1S
03
1B
#560000
b1111 !
b1011 !
b1001 !
b1000 !
0S
0R
0Q
1P
13
0B
0?
0>
1A
0H
0G
0C
0F
1D
01
0/
0+
0$
0-
1&
#570000
b1001 !
1S
03
1B
1H
1G
1C
11
1/
1+
1$
#580000
b1011 !
b1010 !
0S
1R
13
0B
1?
0H
1I
1F
01
12
1-
#590000
b1011 !
1S
03
1B
1H
11
#600000
b1111 !
b1101 !
b1100 !
0S
0R
1Q
13
0B
0?
1>
0C
0F
0+
0$
0-
#610000
b1101 !
1S
03
1B
1C
1+
1$
#620000
b1111 !
b1110 !
0S
1R
13
0B
1?
0G
1F
0E
0/
1-
0)
#630000
b1111 !
1S
03
1B
1G
1/
#640000
b111 !
b11 !
b1 !
b0 !
0S
0R
0Q
0P
13
0B
0?
0>
0A
0H
0I
1E
01
02
1)
#650000
b1 !
1S
03
1B
1H
11
#660000
b11 !
b10 !
0S
1R
13
0B
1?
0C
0F
0+
0$
0-
#670000
b11 !
1S
03
1B
1C
1+
1$
#680000
b111 !
b101 !
b100 !
0S
0R
1Q
13
0B
0?
1>
0G
1F
0E
0/
1-
0)
#690000
b101 !
1S
03
1B
1G
1/
#700000
b111 !
b110 !
0S
1R
13
0B
1?
1E
0D
1)
0&
#710000
b111 !
1S
03
1B
#720000
b1111 !
b1011 !
b1001 !
b1000 !
0S
0R
0Q
1P
13
0B
0?
0>
1A
0H
0G
0C
0F
1D
01
0/
0+
0$
0-
1&
#730000
b1001 !
1S
03
1B
1H
1G
1C
11
1/
1+
1$
#740000
b1011 !
b1010 !
0S
1R
13
0B
1?
0H
1I
1F
01
12
1-
#750000
b1011 !
1S
03
1B
1H
11
#760000
b1111 !
b1101 !
b1100 !
0S
0R
1Q
13
0B
0?
1>
0C
0F
0+
0$
0-
#770000
b1101 !
1S
03
1B
1C
1+
1$
#780000
b1111 !
b1110 !
0S
1R
13
0B
1?
0G
1F
0E
0/
1-
0)
#790000
b1111 !
1S
03
1B
1G
1/
#800000
b111 !
b11 !
b1 !
b0 !
0S
0R
0Q
0P
13
0B
0?
0>
0A
0H
0I
1E
01
02
1)
#810000
b1 !
1S
03
1B
1H
11
#820000
b11 !
b10 !
0S
1R
13
0B
1?
0C
0F
0+
0$
0-
#830000
b11 !
1S
03
1B
1C
1+
1$
#840000
b111 !
b101 !
b100 !
0S
0R
1Q
13
0B
0?
1>
0G
1F
0E
0/
1-
0)
#850000
b101 !
1S
03
1B
1G
1/
#860000
b111 !
b110 !
0S
1R
13
0B
1?
1E
0D
1)
0&
#870000
b111 !
1S
03
1B
#880000
b1111 !
b1011 !
b1001 !
b1000 !
0S
0R
0Q
1P
13
0B
0?
0>
1A
0H
0G
0C
0F
1D
01
0/
0+
0$
0-
1&
#890000
b1001 !
1S
03
1B
1H
1G
1C
11
1/
1+
1$
#900000
b1011 !
b1010 !
0S
1R
13
0B
1?
0H
1I
1F
01
12
1-
#910000
b1011 !
1S
03
1B
1H
11
#920000
b1111 !
b1101 !
b1100 !
0S
0R
1Q
13
0B
0?
1>
0C
0F
0+
0$
0-
#930000
b1101 !
1S
03
1B
1C
1+
1$
#940000
b1111 !
b1110 !
0S
1R
13
0B
1?
0G
1F
0E
0/
1-
0)
#950000
b1111 !
1S
03
1B
1G
1/
#960000
b111 !
b11 !
b1 !
b0 !
0S
0R
0Q
0P
13
0B
0?
0>
0A
0H
0I
1E
01
02
1)
#970000
b1 !
1S
03
1B
1H
11
#980000
b11 !
b10 !
0S
1R
13
0B
1?
0C
0F
0+
0$
0-
#990000
b11 !
1S
03
1B
1C
1+
1$
