Projeto/somador_completo/simulation/qsim/somador_completo.msim.vcd
$comment
	File created using the following command:
		vcd file somador_completo.msim.vcd -direction
$end
$date
	Mon Jun 25 23:19:14 2018
$end
$version
	ModelSim Version 10.1d
$end
$timescale
	1ps
$end
$scope module somador_completo_vlg_vec_tst $end
$var reg 1 ! A $end
$var reg 1 " B $end
$var reg 1 # Cin $end
$var wire 1 $ Cout $end
$var wire 1 % S $end
$var wire 1 & sampler $end
$scope module i1 $end
$var wire 1 ' gnd $end
$var wire 1 ( vcc $end
$var wire 1 ) unknown $end
$var tri1 1 * devclrn $end
$var tri1 1 + devpor $end
$var tri1 1 , devoe $end
$var wire 1 - B~combout $end
$var wire 1 . A~combout $end
$var wire 1 / Cin~combout $end
$var wire 1 0 S~0_combout $end
$var wire 1 1 Cout~0_combout $end
$upscope $end
$upscope $end
$enddefinitions $end
#0
$dumpvars
0!
0"
0#
0$
0%
x&
0'
1(
x)
1*
1+
1,
0-
0.
0/
00
01
$end
#10000
1#
1/
0&
10
1%
#20000
1"
0#
1-
0/
1&
#30000
1#
1/
0&
11
00
1$
0%
#40000
1!
0"
0#
1.
0-
0/
1&
01
10
0$
1%
#50000
1#
1/
0&
11
00
1$
0%
#60000
1"
0#
1-
0/
1&
#70000
1#
1/
0&
10
1%
#80000
0!
0"
0#
0.
0-
0/
1&
01
00
0$
0%
#90000
1#
1/
0&
10
1%
#100000
1"
0#
1-
0/
1&
#110000
1#
1/
0&
11
00
1$
0%
#120000
1!
0"
0#
1.
0-
0/
1&
01
10
0$
1%
#130000
1#
1/
0&
11
00
1$
0%
#140000
1"
0#
1-
0/
1&
#150000
1#
1/
0&
10
1%
#160000
0!
0"
0#
0.
0-
0/
1&
01
00
0$
0%
#170000
1#
1/
0&
10
1%
#180000
1"
0#
1-
0/
1&
#190000
1#
1/
0&
11
00
1$
0%
