Projeto/decoder_BCD_7seg/simulation/qsim/decoder_BCD_7seg.msim.vcd
$comment
	File created using the following command:
		vcd file decoder_BCD_7seg.msim.vcd -direction
$end
$date
	Mon Jul 02 20:28:41 2018
$end
$version
	ModelSim Version 10.1d
$end
$timescale
	1ps
$end
$scope module decoder_BCD_7seg_vlg_vec_tst $end
$var reg 1 ! A $end
$var reg 1 " B $end
$var reg 1 # C $end
$var reg 1 $ D $end
$var wire 1 % aS7 $end
$var wire 1 & bS7 $end
$var wire 1 ' cS7 $end
$var wire 1 ( dS7 $end
$var wire 1 ) eS7 $end
$var wire 1 * fS7 $end
$var wire 1 + gS7 $end
$var wire 1 , sampler $end
$scope module i1 $end
$var wire 1 - gnd $end
$var wire 1 . vcc $end
$var wire 1 / unknown $end
$var tri1 1 0 devclrn $end
$var tri1 1 1 devpor $end
$var tri1 1 2 devoe $end
$var wire 1 3 D~combout $end
$var wire 1 4 A~combout $end
$var wire 1 5 C~combout $end
$var wire 1 6 B~combout $end
$var wire 1 7 aS7~0_combout $end
$var wire 1 8 bS7~0_combout $end
$var wire 1 9 cS7~0_combout $end
$var wire 1 : dS7~0_combout $end
$var wire 1 ; dS7~1_combout $end
$var wire 1 < fS7~0_combout $end
$var wire 1 = gS7~0_combout $end
$upscope $end
$upscope $end
$enddefinitions $end
#0
$dumpvars
0!
0"
0#
0$
1%
1&
1'
1(
1)
1*
0+
x,
0-
1.
x/
10
11
12
03
04
05
06
17
18
19
1:
1;
1<
0=
$end
#10000
1$
13
0,
0<
0;
0:
07
0*
0)
0(
0%
#20000
1#
0$
15
03
1,
1=
1;
1:
09
17
1+
1)
1(
0'
1%
#30000
1$
13
0,
0;
19
0)
1'
#40000
1"
0#
0$
16
05
03
1,
1<
0:
07
1*
0(
0%
#50000
1$
13
0,
1:
08
17
1(
0&
1%
#60000
1#
0$
15
03
1,
1;
1)
#70000
1$
13
0,
0=
0<
0;
0:
18
0+
0*
0)
0(
1&
#80000
1!
0"
0#
0$
14
06
05
03
1,
1=
1<
1:
1;
1+
1*
1(
1)
#90000
1$
13
0,
0;
0)
#100000
1#
0$
15
03
1,
1;
09
1)
0'
#110000
1$
13
0,
0;
19
0)
1'
#120000
1"
0#
0$
16
05
03
1,
#130000
1$
13
0,
08
0&
#140000
1#
0$
15
03
1,
1;
1)
#150000
1$
13
0,
0;
18
0)
1&
#160000
0!
0"
0#
0$
04
06
05
03
1,
0=
1;
0+
1)
#170000
1$
13
0,
0<
0;
0:
07
0*
0)
0(
0%
#180000
1#
0$
15
03
1,
1=
1;
1:
09
17
1+
1)
1(
0'
1%
#190000
1$
13
0,
0;
19
0)
1'
#200000
1"
0#
0$
16
05
03
1,
1<
0:
07
1*
0(
0%
#210000
1$
13
0,
1:
08
17
1(
0&
1%
#220000
1#
0$
15
03
1,
1;
1)
#230000
1$
13
0,
0=
0<
0;
0:
18
0+
0*
0)
0(
1&
#240000
1!
0"
0#
0$
14
06
05
03
1,
1=
1<
1:
1;
1+
1*
1(
1)
#250000
1$
13
0,
0;
0)
#260000
1#
0$
15
03
1,
1;
09
1)
0'
#270000
1$
13
0,
0;
19
0)
1'
#280000
1"
0#
0$
16
05
03
1,
#290000
1$
13
0,
08
0&
#300000
1#
0$
15
03
1,
1;
1)
#310000
1$
13
0,
0;
18
0)
1&
#320000
0!
0"
0#
0$
04
06
05
03
1,
0=
1;
0+
1)
#330000
1$
13
0,
0<
0;
0:
07
0*
0)
0(
0%
#340000
1#
0$
15
03
1,
1=
1;
1:
09
17
1+
1)
1(
0'
1%
#350000
1$
13
0,
0;
19
0)
1'
#360000
1"
0#
0$
16
05
03
1,
1<
0:
07
1*
0(
0%
#370000
1$
13
0,
1:
08
17
1(
0&
1%
#380000
1#
0$
15
03
1,
1;
1)
#390000
1$
13
0,
0=
0<
0;
0:
18
0+
0*
0)
0(
1&
#400000
1!
0"
0#
0$
14
06
05
03
1,
1=
1<
1:
1;
1+
1*
1(
1)
#410000
1$
13
0,
0;
0)
#420000
1#
0$
15
03
1,
1;
09
1)
0'
#430000
1$
13
0,
0;
19
0)
1'
#440000
1"
0#
0$
16
05
03
1,
#450000
1$
13
0,
08
0&
#460000
1#
0$
15
03
1,
1;
1)
#470000
1$
13
0,
0;
18
0)
1&
#480000
0!
0"
0#
0$
04
06
05
03
1,
0=
1;
0+
1)
#490000
1$
13
0,
0<
0;
0:
07
0*
0)
0(
0%
#500000
1#
0$
15
03
1,
1=
1;
1:
09
17
1+
1)
1(
0'
1%
#510000
1$
13
0,
0;
19
0)
1'
#520000
1"
0#
0$
16
05
03
1,
1<
0:
07
1*
0(
0%
#530000
1$
13
0,
1:
08
17
1(
0&
1%
#540000
1#
0$
15
03
1,
1;
1)
#550000
1$
13
0,
0=
0<
0;
0:
18
0+
0*
0)
0(
1&
#560000
1!
0"
0#
0$
14
06
05
03
1,
1=
1<
1:
1;
1+
1*
1(
1)
#570000
1$
13
0,
0;
0)
#580000
1#
0$
15
03
1,
1;
09
1)
0'
#590000
1$
13
0,
0;
19
0)
1'
#600000
1"
0#
0$
16
05
03
1,
#610000
1$
13
0,
08
0&
#620000
1#
0$
15
03
1,
1;
1)
#630000
1$
13
0,
0;
18
0)
1&
#640000
0!
0"
0#
0$
04
06
05
03
1,
0=
1;
0+
1)
#650000
1$
13
0,
0<
0;
0:
07
0*
0)
0(
0%
#660000
1#
0$
15
03
1,
1=
1;
1:
09
17
1+
1)
1(
0'
1%
#670000
1$
13
0,
0;
19
0)
1'
#680000
1"
0#
0$
16
05
03
1,
1<
0:
07
1*
0(
0%
#690000
1$
13
0,
1:
08
17
1(
0&
1%
#700000
1#
0$
15
03
1,
1;
1)
#710000
1$
13
0,
0=
0<
0;
0:
18
0+
0*
0)
0(
1&
#720000
1!
0"
0#
0$
14
06
05
03
1,
1=
1<
1:
1;
1+
1*
1(
1)
#730000
1$
13
0,
0;
0)
#740000
1#
0$
15
03
1,
1;
09
1)
0'
#750000
1$
13
0,
0;
19
0)
1'
#760000
1"
0#
0$
16
05
03
1,
#770000
1$
13
0,
08
0&
#780000
1#
0$
15
03
1,
1;
1)
#790000
1$
13
0,
0;
18
0)
1&
#800000
0!
0"
0#
0$
04
06
05
03
1,
0=
1;
0+
1)
#810000
1$
13
0,
0<
0;
0:
07
0*
0)
0(
0%
#820000
1#
0$
15
03
1,
1=
1;
1:
09
17
1+
1)
1(
0'
1%
#830000
1$
13
0,
0;
19
0)
1'
#840000
1"
0#
0$
16
05
03
1,
1<
0:
07
1*
0(
0%
#850000
1$
13
0,
1:
08
17
1(
0&
1%
#860000
1#
0$
15
03
1,
1;
1)
#870000
1$
13
0,
0=
0<
0;
0:
18
0+
0*
0)
0(
1&
#880000
1!
0"
0#
0$
14
06
05
03
1,
1=
1<
1:
1;
1+
1*
1(
1)
#890000
1$
13
0,
0;
0)
#900000
1#
0$
15
03
1,
1;
09
1)
0'
#910000
1$
13
0,
0;
19
0)
1'
#920000
1"
0#
0$
16
05
03
1,
#930000
1$
13
0,
08
0&
#940000
1#
0$
15
03
1,
1;
1)
#950000
1$
13
0,
0;
18
0)
1&
#960000
0!
0"
0#
0$
04
06
05
03
1,
0=
1;
0+
1)
#970000
1$
13
0,
0<
0;
0:
07
0*
0)
0(
0%
#980000
1#
0$
15
03
1,
1=
1;
1:
09
17
1+
1)
1(
0'
1%
#990000
1$
13
0,
0;
19
0)
1'
